<?xml version="1.0" encoding="utf-8"?>
<!-- Generator: Adobe Illustrator 22.1.0, SVG Export Plug-In . SVG Version: 6.00 Build 0)  -->
<svg version="1.1"
	 id="Layer_1" xmlns:cc="http://creativecommons.org/ns#" xmlns:dc="http://purl.org/dc/elements/1.1/" xmlns:inkscape="http://www.inkscape.org/namespaces/inkscape" xmlns:rdf="http://www.w3.org/1999/02/22-rdf-syntax-ns#" xmlns:sodipodi="http://sodipodi.sourceforge.net/DTD/sodipodi-0.dtd" xmlns:svg="http://www.w3.org/2000/svg"
	 xmlns="http://www.w3.org/2000/svg" xmlns:xlink="http://www.w3.org/1999/xlink" x="0px" y="0px" viewBox="0 0 64.2 47.8"
	 style="enable-background:new 0 0 64.2 47.8;" xml:space="preserve">
<style type="text/css">
	.st0{fill:#2b2b2b;}
</style>
<g transform="translate(0,-952.36218)">
	<path class="st0" d="M57.2,952.4l-3.5,3.6c-9.7,9.8-20.1,20.8-29.8,30.7l-13.4-11.1l-3.9-3.2l-6.3,7.7l3.8,3.2l17,14l3.5,2.9
		l3.2-3.2c10.8-10.8,22.4-23.4,33-34l3.5-3.6L57.2,952.4L57.2,952.4z"/>
</g>
</svg>
